out/crop-rgb/crop--roi-000--img-000--intensity-00015.pgm
out/crop-rgb/crop--roi-000--img-001--intensity-00016.pgm
out/crop-rgb/crop--roi-000--img-002--intensity-00017.pgm
out/crop-rgb/crop--roi-000--img-003--intensity-00018.pgm
out/crop-rgb/crop--roi-000--img-004--intensity-00019.pgm
out/crop-rgb/crop--roi-000--img-005--intensity-00020.pgm
out/crop-rgb/crop--roi-000--img-006--intensity-00021.pgm
out/crop-rgb/crop--roi-000--img-007--intensity-00022.pgm
out/crop-rgb/crop--roi-000--img-008--intensity-00023.pgm
out/crop-rgb/crop--roi-000--img-009--intensity-00024.pgm
out/crop-rgb/crop--roi-000--img-010--intensity-00025.pgm
out/crop-rgb/crop--roi-000--img-011--intensity-00026.pgm
out/crop-rgb/crop--roi-000--img-012--intensity-00027.pgm
out/crop-rgb/crop--roi-000--img-013--intensity-00028.pgm
out/crop-rgb/crop--roi-000--img-014--intensity-00029.pgm
out/crop-rgb/crop--roi-000--img-015--intensity-00030.pgm
out/crop-rgb/crop--roi-000--img-016--intensity-00031.pgm
out/crop-rgb/crop--roi-000--img-017--intensity-00032.pgm
out/crop-rgb/crop--roi-000--img-018--intensity-00033.pgm
out/crop-rgb/crop--roi-000--img-019--intensity-00034.pgm
out/crop-rgb/crop--roi-000--img-020--intensity-00035.pgm
out/crop-rgb/crop--roi-000--img-021--intensity-00036.pgm
out/crop-rgb/crop--roi-000--img-022--intensity-00037.pgm
out/crop-rgb/crop--roi-000--img-023--intensity-00038.pgm
out/crop-rgb/crop--roi-000--img-024--intensity-00039.pgm
out/crop-rgb/crop--roi-000--img-025--intensity-00040.pgm
out/crop-rgb/crop--roi-000--img-026--intensity-00041.pgm
out/crop-rgb/crop--roi-000--img-027--intensity-00042.pgm
out/crop-rgb/crop--roi-000--img-028--intensity-00043.pgm
out/crop-rgb/crop--roi-000--img-029--intensity-00044.pgm
out/crop-rgb/crop--roi-000--img-030--intensity-00045.pgm
out/crop-rgb/crop--roi-000--img-031--intensity-00046.pgm
out/crop-rgb/crop--roi-000--img-032--intensity-00047.pgm
out/crop-rgb/crop--roi-000--img-033--intensity-00048.pgm
out/crop-rgb/crop--roi-000--img-034--intensity-00049.pgm
out/crop-rgb/crop--roi-000--img-035--intensity-00050.pgm
out/crop-rgb/crop--roi-000--img-036--intensity-00051.pgm
out/crop-rgb/crop--roi-000--img-037--intensity-00052.pgm
out/crop-rgb/crop--roi-000--img-038--intensity-00053.pgm
out/crop-rgb/crop--roi-000--img-039--intensity-00054.pgm
out/crop-rgb/crop--roi-000--img-040--intensity-00055.pgm
out/crop-rgb/crop--roi-000--img-041--intensity-00056.pgm
out/crop-rgb/crop--roi-000--img-042--intensity-00057.pgm
out/crop-rgb/crop--roi-000--img-043--intensity-00058.pgm
out/crop-rgb/crop--roi-000--img-044--intensity-00059.pgm
out/crop-rgb/crop--roi-000--img-045--intensity-00060.pgm
out/crop-rgb/crop--roi-000--img-046--intensity-00061.pgm
out/crop-rgb/crop--roi-000--img-047--intensity-00062.pgm
out/crop-rgb/crop--roi-000--img-048--intensity-00063.pgm
out/crop-rgb/crop--roi-000--img-049--intensity-00064.pgm
out/crop-rgb/crop--roi-000--img-050--intensity-00065.pgm
out/crop-rgb/crop--roi-000--img-051--intensity-00066.pgm
out/crop-rgb/crop--roi-000--img-052--intensity-00067.pgm
out/crop-rgb/crop--roi-000--img-053--intensity-00068.pgm
out/crop-rgb/crop--roi-000--img-054--intensity-00069.pgm
out/crop-rgb/crop--roi-000--img-055--intensity-00070.pgm
out/crop-rgb/crop--roi-000--img-056--intensity-00071.pgm
out/crop-rgb/crop--roi-000--img-057--intensity-00072.pgm
out/crop-rgb/crop--roi-000--img-058--intensity-00073.pgm
out/crop-rgb/crop--roi-000--img-059--intensity-00074.pgm
out/crop-rgb/crop--roi-000--img-060--intensity-00075.pgm
out/crop-rgb/crop--roi-000--img-061--intensity-00076.pgm
out/crop-rgb/crop--roi-000--img-062--intensity-00077.pgm
out/crop-rgb/crop--roi-000--img-063--intensity-00078.pgm
out/crop-rgb/crop--roi-000--img-064--intensity-00079.pgm
out/crop-rgb/crop--roi-000--img-065--intensity-00080.pgm
out/crop-rgb/crop--roi-000--img-066--intensity-00081.pgm
out/crop-rgb/crop--roi-000--img-067--intensity-00082.pgm
out/crop-rgb/crop--roi-000--img-068--intensity-00083.pgm
out/crop-rgb/crop--roi-000--img-069--intensity-00084.pgm
out/crop-rgb/crop--roi-000--img-070--intensity-00085.pgm
out/crop-rgb/crop--roi-000--img-071--intensity-00086.pgm
out/crop-rgb/crop--roi-000--img-072--intensity-00087.pgm
out/crop-rgb/crop--roi-000--img-073--intensity-00088.pgm
out/crop-rgb/crop--roi-000--img-074--intensity-00089.pgm
out/crop-rgb/crop--roi-000--img-075--intensity-00090.pgm
out/crop-rgb/crop--roi-000--img-076--intensity-00091.pgm
out/crop-rgb/crop--roi-000--img-077--intensity-00092.pgm
out/crop-rgb/crop--roi-000--img-078--intensity-00093.pgm
out/crop-rgb/crop--roi-000--img-079--intensity-00094.pgm
out/crop-rgb/crop--roi-000--img-080--intensity-00095.pgm
out/crop-rgb/crop--roi-000--img-081--intensity-00096.pgm
out/crop-rgb/crop--roi-000--img-082--intensity-00097.pgm
out/crop-rgb/crop--roi-000--img-083--intensity-00098.pgm
out/crop-rgb/crop--roi-000--img-084--intensity-00099.pgm
out/crop-rgb/crop--roi-000--img-085--intensity-00100.pgm
out/crop-rgb/crop--roi-000--img-086--intensity-00101.pgm
out/crop-rgb/crop--roi-000--img-087--intensity-00102.pgm
out/crop-rgb/crop--roi-000--img-088--intensity-00103.pgm
out/crop-rgb/crop--roi-000--img-089--intensity-00104.pgm
out/crop-rgb/crop--roi-000--img-090--intensity-00105.pgm
out/crop-rgb/crop--roi-000--img-091--intensity-00106.pgm
out/crop-rgb/crop--roi-000--img-092--intensity-00107.pgm
out/crop-rgb/crop--roi-000--img-093--intensity-00108.pgm
out/crop-rgb/crop--roi-000--img-094--intensity-00109.pgm
out/crop-rgb/crop--roi-000--img-095--intensity-00110.pgm
out/crop-rgb/crop--roi-000--img-096--intensity-00111.pgm
out/crop-rgb/crop--roi-000--img-097--intensity-00112.pgm
out/crop-rgb/crop--roi-000--img-098--intensity-00113.pgm
out/crop-rgb/crop--roi-000--img-099--intensity-00114.pgm
out/crop-rgb/crop--roi-000--img-100--intensity-00115.pgm
out/crop-rgb/crop--roi-000--img-101--intensity-00116.pgm
out/crop-rgb/crop--roi-000--img-102--intensity-00117.pgm
out/crop-rgb/crop--roi-000--img-103--intensity-00118.pgm
out/crop-rgb/crop--roi-000--img-104--intensity-00119.pgm
out/crop-rgb/crop--roi-000--img-105--intensity-00120.pgm
out/crop-rgb/crop--roi-000--img-106--intensity-00121.pgm
out/crop-rgb/crop--roi-000--img-107--intensity-00122.pgm
out/crop-rgb/crop--roi-000--img-108--intensity-00123.pgm
out/crop-rgb/crop--roi-000--img-109--intensity-00124.pgm
out/crop-rgb/crop--roi-000--img-110--intensity-00125.pgm
out/crop-rgb/crop--roi-000--img-111--intensity-00126.pgm
out/crop-rgb/crop--roi-000--img-112--intensity-00127.pgm
out/crop-rgb/crop--roi-000--img-113--intensity-00128.pgm
out/crop-rgb/crop--roi-000--img-114--intensity-00129.pgm
out/crop-rgb/crop--roi-000--img-115--intensity-00130.pgm
out/crop-rgb/crop--roi-000--img-116--intensity-00131.pgm
out/crop-rgb/crop--roi-000--img-117--intensity-00132.pgm
out/crop-rgb/crop--roi-000--img-118--intensity-00133.pgm
out/crop-rgb/crop--roi-000--img-119--intensity-00134.pgm
out/crop-rgb/crop--roi-000--img-120--intensity-00135.pgm
out/crop-rgb/crop--roi-000--img-121--intensity-00136.pgm
out/crop-rgb/crop--roi-000--img-122--intensity-00137.pgm
out/crop-rgb/crop--roi-000--img-123--intensity-00138.pgm
out/crop-rgb/crop--roi-000--img-124--intensity-00139.pgm
out/crop-rgb/crop--roi-000--img-125--intensity-00140.pgm
out/crop-rgb/crop--roi-000--img-126--intensity-00141.pgm
out/crop-rgb/crop--roi-000--img-127--intensity-00142.pgm
out/crop-rgb/crop--roi-000--img-128--intensity-00143.pgm
out/crop-rgb/crop--roi-000--img-129--intensity-00144.pgm
out/crop-rgb/crop--roi-000--img-130--intensity-00145.pgm
out/crop-rgb/crop--roi-000--img-131--intensity-00146.pgm
out/crop-rgb/crop--roi-000--img-132--intensity-00147.pgm
out/crop-rgb/crop--roi-000--img-133--intensity-00148.pgm
out/crop-rgb/crop--roi-000--img-134--intensity-00149.pgm
out/crop-rgb/crop--roi-000--img-135--intensity-00150.pgm
out/crop-rgb/crop--roi-000--img-136--intensity-00151.pgm
out/crop-rgb/crop--roi-000--img-137--intensity-00152.pgm
out/crop-rgb/crop--roi-000--img-138--intensity-00153.pgm
out/crop-rgb/crop--roi-000--img-139--intensity-00154.pgm
out/crop-rgb/crop--roi-000--img-140--intensity-00155.pgm
out/crop-rgb/crop--roi-000--img-141--intensity-00156.pgm
out/crop-rgb/crop--roi-000--img-142--intensity-00157.pgm
out/crop-rgb/crop--roi-000--img-143--intensity-00158.pgm
out/crop-rgb/crop--roi-000--img-144--intensity-00159.pgm
out/crop-rgb/crop--roi-000--img-145--intensity-00160.pgm
out/crop-rgb/crop--roi-000--img-146--intensity-00161.pgm
out/crop-rgb/crop--roi-000--img-147--intensity-00162.pgm
out/crop-rgb/crop--roi-000--img-148--intensity-00163.pgm
out/crop-rgb/crop--roi-000--img-149--intensity-00164.pgm
out/crop-rgb/crop--roi-000--img-150--intensity-00165.pgm
out/crop-rgb/crop--roi-000--img-151--intensity-00166.pgm
out/crop-rgb/crop--roi-000--img-152--intensity-00167.pgm
out/crop-rgb/crop--roi-000--img-153--intensity-00168.pgm
out/crop-rgb/crop--roi-000--img-154--intensity-00169.pgm
out/crop-rgb/crop--roi-000--img-155--intensity-00170.pgm
out/crop-rgb/crop--roi-000--img-156--intensity-00171.pgm
out/crop-rgb/crop--roi-000--img-157--intensity-00172.pgm
out/crop-rgb/crop--roi-000--img-158--intensity-00173.pgm
out/crop-rgb/crop--roi-000--img-159--intensity-00174.pgm
out/crop-rgb/crop--roi-000--img-160--intensity-00175.pgm
out/crop-rgb/crop--roi-000--img-161--intensity-00176.pgm
out/crop-rgb/crop--roi-000--img-162--intensity-00177.pgm
out/crop-rgb/crop--roi-000--img-163--intensity-00178.pgm
out/crop-rgb/crop--roi-000--img-164--intensity-00179.pgm
out/crop-rgb/crop--roi-000--img-165--intensity-00180.pgm
out/crop-rgb/crop--roi-000--img-166--intensity-00181.pgm
out/crop-rgb/crop--roi-000--img-167--intensity-00182.pgm
out/crop-rgb/crop--roi-000--img-168--intensity-00183.pgm
out/crop-rgb/crop--roi-000--img-169--intensity-00184.pgm
out/crop-rgb/crop--roi-000--img-170--intensity-00185.pgm
out/crop-rgb/crop--roi-000--img-171--intensity-00186.pgm
out/crop-rgb/crop--roi-000--img-172--intensity-00187.pgm
out/crop-rgb/crop--roi-000--img-173--intensity-00188.pgm
out/crop-rgb/crop--roi-000--img-174--intensity-00189.pgm
out/crop-rgb/crop--roi-000--img-175--intensity-00190.pgm
out/crop-rgb/crop--roi-000--img-176--intensity-00191.pgm
out/crop-rgb/crop--roi-000--img-177--intensity-00192.pgm
out/crop-rgb/crop--roi-000--img-178--intensity-00193.pgm
out/crop-rgb/crop--roi-000--img-179--intensity-00194.pgm
out/crop-rgb/crop--roi-000--img-180--intensity-00195.pgm
out/crop-rgb/crop--roi-000--img-181--intensity-00196.pgm
out/crop-rgb/crop--roi-000--img-182--intensity-00197.pgm
out/crop-rgb/crop--roi-000--img-183--intensity-00198.pgm
out/crop-rgb/crop--roi-000--img-184--intensity-00199.pgm
out/crop-rgb/crop--roi-000--img-185--intensity-00200.pgm
out/crop-rgb/crop--roi-000--img-186--intensity-00201.pgm
out/crop-rgb/crop--roi-000--img-187--intensity-00202.pgm
out/crop-rgb/crop--roi-000--img-188--intensity-00203.pgm
out/crop-rgb/crop--roi-000--img-189--intensity-00204.pgm
out/crop-rgb/crop--roi-000--img-190--intensity-00205.pgm
out/crop-rgb/crop--roi-000--img-191--intensity-00206.pgm
out/crop-rgb/crop--roi-000--img-192--intensity-00207.pgm
out/crop-rgb/crop--roi-000--img-193--intensity-00208.pgm
out/crop-rgb/crop--roi-000--img-194--intensity-00209.pgm
out/crop-rgb/crop--roi-000--img-195--intensity-00210.pgm
out/crop-rgb/crop--roi-000--img-196--intensity-00211.pgm
out/crop-rgb/crop--roi-000--img-197--intensity-00212.pgm
out/crop-rgb/crop--roi-000--img-198--intensity-00213.pgm
out/crop-rgb/crop--roi-000--img-199--intensity-00214.pgm
out/crop-rgb/crop--roi-000--img-200--intensity-00215.pgm
out/crop-rgb/crop--roi-000--img-201--intensity-00216.pgm
out/crop-rgb/crop--roi-000--img-202--intensity-00217.pgm
out/crop-rgb/crop--roi-000--img-203--intensity-00218.pgm
out/crop-rgb/crop--roi-000--img-204--intensity-00219.pgm
out/crop-rgb/crop--roi-000--img-205--intensity-00220.pgm
out/crop-rgb/crop--roi-000--img-206--intensity-00221.pgm
out/crop-rgb/crop--roi-000--img-207--intensity-00222.pgm
out/crop-rgb/crop--roi-000--img-208--intensity-00223.pgm
out/crop-rgb/crop--roi-000--img-209--intensity-00224.pgm
out/crop-rgb/crop--roi-000--img-210--intensity-00225.pgm
out/crop-rgb/crop--roi-000--img-211--intensity-00226.pgm
out/crop-rgb/crop--roi-000--img-212--intensity-00227.pgm
out/crop-rgb/crop--roi-000--img-213--intensity-00228.pgm
out/crop-rgb/crop--roi-000--img-214--intensity-00229.pgm
out/crop-rgb/crop--roi-000--img-215--intensity-00230.pgm
out/crop-rgb/crop--roi-000--img-216--intensity-00231.pgm
out/crop-rgb/crop--roi-000--img-217--intensity-00232.pgm
out/crop-rgb/crop--roi-000--img-218--intensity-00233.pgm
out/crop-rgb/crop--roi-000--img-219--intensity-00234.pgm
out/crop-rgb/crop--roi-000--img-220--intensity-00235.pgm
out/crop-rgb/crop--roi-000--img-221--intensity-00236.pgm
out/crop-rgb/crop--roi-000--img-222--intensity-00237.pgm
out/crop-rgb/crop--roi-000--img-223--intensity-00238.pgm
out/crop-rgb/crop--roi-000--img-224--intensity-00239.pgm
out/crop-rgb/crop--roi-000--img-225--intensity-00240.pgm
out/crop-rgb/crop--roi-000--img-226--intensity-00241.pgm
out/crop-rgb/crop--roi-000--img-227--intensity-00242.pgm
out/crop-rgb/crop--roi-000--img-228--intensity-00243.pgm
out/crop-rgb/crop--roi-000--img-229--intensity-00244.pgm
out/crop-rgb/crop--roi-000--img-230--intensity-00245.pgm
out/crop-rgb/crop--roi-000--img-231--intensity-00246.pgm
out/crop-rgb/crop--roi-000--img-232--intensity-00247.pgm
out/crop-rgb/crop--roi-000--img-233--intensity-00248.pgm
out/crop-rgb/crop--roi-000--img-234--intensity-00249.pgm
out/crop-rgb/crop--roi-000--img-235--intensity-00250.pgm
